D:\IJ IDEA workspace\3 course\Automatization Java\Client-Server-Application\src\main\java\objects\Packet.java
D:\IJ IDEA workspace\3 course\Automatization Java\Client-Server-Application\src\main\java\utils\CBCUtils.java
D:\IJ IDEA workspace\3 course\Automatization Java\Client-Server-Application\src\main\java\utils\Values.java
D:\IJ IDEA workspace\3 course\Automatization Java\Client-Server-Application\src\main\java\Main.java
D:\IJ IDEA workspace\3 course\Automatization Java\Client-Server-Application\src\main\java\model\ProductGroup.java
D:\IJ IDEA workspace\3 course\Automatization Java\Client-Server-Application\src\main\java\packetProcessorUnits\implementations\Processor.java
D:\IJ IDEA workspace\3 course\Automatization Java\Client-Server-Application\src\main\java\packetProcessorUnits\interfaces\SenderInterface.java
D:\IJ IDEA workspace\3 course\Automatization Java\Client-Server-Application\src\main\java\packetProcessorUnits\implementations\SenderImpl.java
D:\IJ IDEA workspace\3 course\Automatization Java\Client-Server-Application\src\main\java\utils\Utils.java
D:\IJ IDEA workspace\3 course\Automatization Java\Client-Server-Application\src\main\java\objects\Message.java
D:\IJ IDEA workspace\3 course\Automatization Java\Client-Server-Application\src\main\java\utils\PacketUtils.java
D:\IJ IDEA workspace\3 course\Automatization Java\Client-Server-Application\src\main\java\model\Storage.java
D:\IJ IDEA workspace\3 course\Automatization Java\Client-Server-Application\src\main\java\packetProcessorUnits\implementations\Decoder.java
D:\IJ IDEA workspace\3 course\Automatization Java\Client-Server-Application\src\main\java\packetProcessorUnits\implementations\ReceiverImpl.java
D:\IJ IDEA workspace\3 course\Automatization Java\Client-Server-Application\src\main\java\packetProcessorUnits\interfaces\ReceiverInterface.java
D:\IJ IDEA workspace\3 course\Automatization Java\Client-Server-Application\src\main\java\enums\Command.java
D:\IJ IDEA workspace\3 course\Automatization Java\Client-Server-Application\src\main\java\packetProcessorUnits\implementations\Encoder.java
D:\IJ IDEA workspace\3 course\Automatization Java\Client-Server-Application\src\main\java\model\Product.java
